…
``` r
country_player %>% filter(countryCode=='CZE') %>% arrange(desc(total_points)) %>% select(total_points,inHockeyHof,activePlayer,draftYear)
```

    ## Adding missing grouping variables: `playerId`, `full_name`

    ## # A tibble: 183 x 6
    ## # Groups:   playerId, full_name, activePlayer [181]
    ##    playerId full_name     total_points inHockeyHof activePlayer draftYear
    ##       <int> <chr>                <int> <lgl>       <lgl>            <int>
    ##  1  8448208 Jaromir Jagr          1921 FALSE       FALSE             1990
    ##  2  8460542 Patrik Elias          1025 FALSE       FALSE             1994
    ##  3  8460577 Milan Hejduk           805 FALSE       FALSE             1994
    ##  4  8459492 Vinny Prospal          765 FALSE       FALSE             1993
    ##  5  8447958 Bobby Holik            747 FALSE       FALSE             1989
    ##  6  8460465 Petr Sykora            721 FALSE       FALSE             1995
    ##  7  8449807 Petr Nedved            717 FALSE       FALSE             1990
    ##  8  8458955 Martin Straka          717 FALSE       FALSE             1992
    ##  9  8456966 Robert Lang            703 FALSE       FALSE             1990
    ## 10  8474161 Jakub Voracek          695 FALSE       TRUE              2007
    ## # ... with 173 more rows
